UART_dump.vcd
$date
Sun Jul  9 08:51:58 2023
$end
$version
Riviera-PRO Version 2022.04.117.8517
$end
$timescale
1 ns
$end

$scope module test_uart $end
$var wire 1 ! tx_data_out $end
$var wire 7 " rx_data_out [6:0] $end
$var reg 1 # start $end
$var reg 1 $ clk $end
$var reg 7 % tx_data_in [6:0] $end
$var reg 1 & rx_data_in $end
$upscope $end

$enddefinitions $end
$dumpvars
x!
b0 "
0#
0$
bx %
x&
$end
#1
0&
b1001100 %
1#
1!
#2
0#
#3
1$
0!
#6
0$
#8
1&
#9
1$
#12
0$
#15
1$
1!
#18
0$
#21
1$
#24
0$
#26
0&
#27
1$
0!
#30
0$
#32
1&
#33
1$
#36
0$
#38
0&
#39
1$
1!
#42
0$
#44
1&
#45
1$
x!
#48
0$
#51
1$
#54
0$
#57
1$
b1101011 "
